{"_type":"export","__export_format":4,"__export_date":"2023-01-28T16:01:27.872Z","__export_source":"insomnia.desktop.app:v2022.7.5","resources":[{"_id":"req_817cd3211d494607bedfa2dd983a0e54","parentId":"fld_03c71ca9f24841e3b3d4f43a54b16dd9","modified":1674921552132,"created":1674898880768,"url":"{{ _.base_url }}/api/user/","name":"Create User","description":"Rota para criar o usuário\n\n```response:201\n{\n\t\"username\": \"rapha\",\n\t\"email\": \"rapha.gloria@gmail.com\"\n}\n```","method":"POST","body":{"mimeType":"application/json","text":"{\n\t\"username\": \"rapha\",\n\t\"email\": \"rapha.gloria@gmail.com\",\n\t\"password\": \"1612\"\n}"},"parameters":[],"headers":[{"name":"Content-Type","value":"application/json"}],"authentication":{},"metaSortKey":-1674915594440.9375,"isPrivate":false,"settingStoreCookies":true,"settingSendCookies":true,"settingDisableRenderRequestBody":false,"settingEncodeUrl":true,"settingRebuildPath":true,"settingFollowRedirects":"global","_type":"request"},{"_id":"fld_03c71ca9f24841e3b3d4f43a54b16dd9","parentId":"wrk_70494aec390b424ea5157622de056756","modified":1674920620030,"created":1674920616137,"name":"User","description":"","environment":{},"environmentPropertyOrder":null,"metaSortKey":-1674916753293.875,"_type":"request_group"},{"_id":"wrk_70494aec390b424ea5157622de056756","parentId":null,"modified":1674578131773,"created":1674578131773,"name":"desafio-backend","description":"","scope":"collection","_type":"workspace"},{"_id":"req_08f21bdb5e434e3ea1e37f4c86e128db","parentId":"fld_03c71ca9f24841e3b3d4f43a54b16dd9","modified":1674921585420,"created":1674900476884,"url":"{{ _.base_url }}/api/user/login/","name":"User Login","description":"Rota para realizar a autenticação do usuário com a API\n\n```response:200\n{\n\t\"refresh\": \"eyJhbGciOiJIUzI1NiIsInR5cCI6IkpXVCJ9.eyJ0b2tlbl90eXBlIjoicmVmcmVzaCIsImV4cCI6MTY3NTUxMDMwOSwiaWF0IjoxNjc0OTA1NTA5LCJqdGkiOiJjMjZjYTIzNmU2M2I0YmE3OGY3Y2EyN2FlNWE5NjViMSIsInVzZXJfaWQiOjN9.JPUDF9Vyd6h_XbQiUKdZk0STAgKotnYiu6XBvoExkUY\",\n\t\"access\": \"eyJhbGciOiJIUzI1NiIsInR5cCI6IkpXVCJ9.eyJ0b2tlbl90eXBlIjoiYWNjZXNzIiwiZXhwIjoxNjc0OTkxOTA5LCJpYXQiOjE2NzQ5MDU1MDksImp0aSI6ImM1N2YzZDdiYzg2ZTQ2ZjI4MjdmZjNjNTM2N2M0NmUyIiwidXNlcl9pZCI6M30.m36bMEavmPm_eCzgDusXWdbDd7jwGm874lnnVnRrUY8\"\n}\n```","method":"POST","body":{"mimeType":"application/json","text":"{\n\t\"username\": \"rapha\",\n\t\"password\": \"1612\"\n}"},"parameters":[],"headers":[{"name":"Content-Type","value":"application/json"}],"authentication":{},"metaSortKey":-1674915594390.9375,"isPrivate":false,"settingStoreCookies":true,"settingSendCookies":true,"settingDisableRenderRequestBody":false,"settingEncodeUrl":true,"settingRebuildPath":true,"settingFollowRedirects":"global","_type":"request"},{"_id":"req_ff7ae507d8aa4808ad8b311ca71c4cf0","parentId":"fld_03c71ca9f24841e3b3d4f43a54b16dd9","modified":1674921600574,"created":1674901149353,"url":"{{ _.base_url }}/api/user/info/","name":"List User Informations","description":"Rota para listar as informações do usuário\n```response:200\n{\n\t\"username\": \"rapha\",\n\t\"email\": \"rapha.gloria@gmail.com\"\n}\n```","method":"GET","body":{},"parameters":[],"headers":[{"id":"pair_bb09ef5ee3d1421b9795d18df53aff5b","name":"Authorization","value":"Bearer eyJhbGciOiJIUzI1NiIsInR5cCI6IkpXVCJ9.eyJ0b2tlbl90eXBlIjoiYWNjZXNzIiwiZXhwIjoxNjc0OTkxOTA5LCJpYXQiOjE2NzQ5MDU1MDksImp0aSI6ImM1N2YzZDdiYzg2ZTQ2ZjI4MjdmZjNjNTM2N2M0NmUyIiwidXNlcl9pZCI6M30.m36bMEavmPm_eCzgDusXWdbDd7jwGm874lnnVnRrUY8","description":""}],"authentication":{"type":"bearer","token":"{% response 'body', 'req_08f21bdb5e434e3ea1e37f4c86e128db', 'b64::JC5hY2Nlc3M=::46b', 'never', 60 %}","disabled":true},"metaSortKey":-1674915594340.9375,"isPrivate":false,"settingStoreCookies":true,"settingSendCookies":true,"settingDisableRenderRequestBody":false,"settingEncodeUrl":true,"settingRebuildPath":true,"settingFollowRedirects":"global","_type":"request"},{"_id":"req_b22c76b1eb5b42d0ac31906814e6d254","parentId":"fld_68139f9a0dac4994b5ed15a9e47e569f","modified":1674921618411,"created":1674914435588,"url":"{{ _.base_url }}/api/store/","name":"List user stores","description":"Essa rota lista todas as lojas que pertencem ao usuário\n```response:200\n{\n\t\"count\": 5,\n\t\"next\": null,\n\t\"previous\": null,\n\t\"results\": [\n\t\t{\n\t\t\t\"id\": 18,\n\t\t\t\"name\": \"BAR DO JOÃO       \",\n\t\t\t\"balance\": -102.0,\n\t\t\t\"owner_name\": \"JOÃO MACEDO   \",\n\t\t\t\"user\": 3\n\t\t},\n\t\t{\n\t\t\t\"id\": 22,\n\t\t\t\"name\": \"LOJA DO Ó - FILIAL\",\n\t\t\t\"balance\": 152.32,\n\t\t\t\"owner_name\": \"MARIA JOSEFINA\",\n\t\t\t\"user\": 3\n\t\t},\n\t\t{\n\t\t\t\"id\": 19,\n\t\t\t\"name\": \"LOJA DO Ó - MATRIZ\",\n\t\t\t\"balance\": 230.0,\n\t\t\t\"owner_name\": \"MARIA JOSEFINA\",\n\t\t\t\"user\": 3\n\t\t},\n\t\t{\n\t\t\t\"id\": 21,\n\t\t\t\"name\": \"MERCEARIA 3 IRMÃOS\",\n\t\t\t\"balance\": -7023.0,\n\t\t\t\"owner_name\": \"JOSÉ COSTA    \",\n\t\t\t\"user\": 3\n\t\t},\n\t\t{\n\t\t\t\"id\": 20,\n\t\t\t\"name\": \"MERCADO DA AVENIDA\",\n\t\t\t\"balance\": 489.20000000000005,\n\t\t\t\"owner_name\": \"MARCOS PEREIRA\",\n\t\t\t\"user\": 3\n\t\t}\n\t]\n}\n```","method":"GET","body":{},"parameters":[],"headers":[],"authentication":{"type":"bearer","token":"{% response 'body', 'req_08f21bdb5e434e3ea1e37f4c86e128db', 'b64::JC5hY2Nlc3M=::46b', 'never', 60 %}"},"metaSortKey":-1674733913558,"isPrivate":false,"settingStoreCookies":true,"settingSendCookies":true,"settingDisableRenderRequestBody":false,"settingEncodeUrl":true,"settingRebuildPath":true,"settingFollowRedirects":"global","_type":"request"},{"_id":"fld_68139f9a0dac4994b5ed15a9e47e569f","parentId":"wrk_70494aec390b424ea5157622de056756","modified":1674920657063,"created":1674920649124,"name":"Stores","description":"","environment":{},"environmentPropertyOrder":null,"metaSortKey":-1674794087568,"_type":"request_group"},{"_id":"req_7470a1d75212484eb93fb6e6d8226f2b","parentId":"fld_fc2b8f1afeed49419cd9e418b41a45f6","modified":1674921653858,"created":1674578133923,"url":"{{ _.base_url }}/api/transaction/","name":"Archive upload","description":"Envie o arquivo CNAB.txt\n```response:201\n{}\n```","method":"POST","body":{"mimeType":"multipart/form-data","params":[{"id":"pair_aa92eefc68f94661a2045439f85459e1","name":"cnab","value":"","description":"","type":"file","fileName":"\\\\wsl.localhost\\Ubuntu\\home\\rapha\\kenzie\\m6\\sprint2\\desafio-backend-python\\server\\CNAB.txt"}]},"parameters":[{"id":"pair_fdc688cfd9f64fa59ec2804f19287c2b","name":"","value":"","description":""}],"headers":[{"name":"Content-Type","value":"multipart/form-data","id":"pair_929fbfdd91464276a5fcfca4eb33ae7d"}],"authentication":{},"metaSortKey":-1674578133923,"isPrivate":false,"settingStoreCookies":true,"settingSendCookies":true,"settingDisableRenderRequestBody":false,"settingEncodeUrl":true,"settingRebuildPath":true,"settingFollowRedirects":"global","_type":"request"},{"_id":"fld_fc2b8f1afeed49419cd9e418b41a45f6","parentId":"wrk_70494aec390b424ea5157622de056756","modified":1674920695034,"created":1674920693162,"name":"Transactions","description":"","environment":{},"environmentPropertyOrder":null,"metaSortKey":-1674733913558,"_type":"request_group"},{"_id":"req_a713365ae63b4a2f81a11e488d3cb14c","parentId":"fld_fc2b8f1afeed49419cd9e418b41a45f6","modified":1674921671955,"created":1674673739548,"url":"{{ _.base_url }}/api/transactions/?page=1","name":"Get Transactions","description":"Essa rota lista todas as transações das lojas que pertencem ao usuário\n```response:200\n{\n\t\"count\": 21,\n\t\"next\": \"http://localhost:8000/api/transactions/?page=2\",\n\t\"previous\": null,\n\t\"results\": [\n\t\t{\n\t\t\t\"id\": 1,\n\t\t\t\"type\": \"3\",\n\t\t\t\"date\": \"2019-03-01\",\n\t\t\t\"value\": 142.0,\n\t\t\t\"cpf\": \"09620676017\",\n\t\t\t\"card\": \"4753****3153\",\n\t\t\t\"hour\": \"15:34:53\",\n\t\t\t\"store\": {\n\t\t\t\t\"id\": 3,\n\t\t\t\t\"name\": \"BAR DO JOÃO       \",\n\t\t\t\t\"balance\": -102.0,\n\t\t\t\t\"owner_name\": \"JOÃO MACEDO   \",\n\t\t\t\t\"user\": 3\n\t\t\t}\n\t\t},\n\t\t{\n\t\t\t\"id\": 4,\n\t\t\t\"type\": \"2\",\n\t\t\t\"date\": \"2019-03-01\",\n\t\t\t\"value\": 112.0,\n\t\t\t\"cpf\": \"09620676017\",\n\t\t\t\"card\": \"3648****0099\",\n\t\t\t\"hour\": \"23:42:34\",\n\t\t\t\"store\": {\n\t\t\t\t\"id\": 3,\n\t\t\t\t\"name\": \"BAR DO JOÃO       \",\n\t\t\t\t\"balance\": -102.0,\n\t\t\t\t\"owner_name\": \"JOÃO MACEDO   \",\n\t\t\t\t\"user\": 3\n\t\t\t}\n\t\t},\n\t\t{\n\t\t\t\"id\": 5,\n\t\t\t\"type\": \"1\",\n\t\t\t\"date\": \"2019-03-01\",\n\t\t\t\"value\": 152.0,\n\t\t\t\"cpf\": \"09620676017\",\n\t\t\t\"card\": \"1234****7890\",\n\t\t\t\"hour\": \"23:30:00\",\n\t\t\t\"store\": {\n\t\t\t\t\"id\": 3,\n\t\t\t\t\"name\": \"BAR DO JOÃO       \",\n\t\t\t\t\"balance\": -102.0,\n\t\t\t\t\"owner_name\": \"JOÃO MACEDO   \",\n\t\t\t\t\"user\": 3\n\t\t\t}\n\t\t},\n\t\t{\n\t\t\t\"id\": 2,\n\t\t\t\"type\": \"5\",\n\t\t\t\"date\": \"2019-03-01\",\n\t\t\t\"value\": 132.0,\n\t\t\t\"cpf\": \"55641815063\",\n\t\t\t\"card\": \"3123****7687\",\n\t\t\t\"hour\": \"14:56:07\",\n\t\t\t\"store\": {\n\t\t\t\t\"id\": 4,\n\t\t\t\t\"name\": \"LOJA DO Ó - MATRIZ\",\n\t\t\t\t\"balance\": 230.0,\n\t\t\t\t\"owner_name\": \"MARIA JOSEFINA\",\n\t\t\t\t\"user\": 3\n\t\t\t}\n\t\t},\n\t\t{\n\t\t\t\"id\": 9,\n\t\t\t\"type\": \"1\",\n\t\t\t\"date\": \"2019-03-01\",\n\t\t\t\"value\": 200.0,\n\t\t\t\"cpf\": \"55641815063\",\n\t\t\t\"card\": \"1234****3324\",\n\t\t\t\"hour\": \"09:00:02\",\n\t\t\t\"store\": {\n\t\t\t\t\"id\": 4,\n\t\t\t\t\"name\": \"LOJA DO Ó - MATRIZ\",\n\t\t\t\t\"balance\": 230.0,\n\t\t\t\t\"owner_name\": \"MARIA JOSEFINA\",\n\t\t\t\t\"user\": 3\n\t\t\t}\n\t\t}\n\t]\n}\n```","method":"GET","body":{},"parameters":[],"headers":[],"authentication":{"type":"bearer","token":"{% response 'body', 'req_08f21bdb5e434e3ea1e37f4c86e128db', 'b64::JC5hY2Nlc3M=::46b', 'never', 60 %}"},"metaSortKey":-1674578133873,"isPrivate":false,"settingStoreCookies":true,"settingSendCookies":true,"settingDisableRenderRequestBody":false,"settingEncodeUrl":true,"settingRebuildPath":true,"settingFollowRedirects":"global","_type":"request"},{"_id":"env_9975002c55c8542d23fce6106bc9eb10bbeacf6f","parentId":"wrk_70494aec390b424ea5157622de056756","modified":1674921015901,"created":1674578131781,"name":"Base Environment","data":{"base_url":"localhost:8000"},"dataPropertyOrder":{"&":["base_url"]},"color":null,"isPrivate":false,"metaSortKey":1674578131781,"_type":"environment"},{"_id":"jar_9975002c55c8542d23fce6106bc9eb10bbeacf6f","parentId":"wrk_70494aec390b424ea5157622de056756","modified":1674578131783,"created":1674578131783,"name":"Default Jar","cookies":[],"_type":"cookie_jar"},{"_id":"spc_775acfb6a05c4692a0ca799ad89d5976","parentId":"wrk_70494aec390b424ea5157622de056756","modified":1674578131776,"created":1674578131776,"fileName":"desafio-backend","contents":"","contentType":"yaml","_type":"api_spec"},{"_id":"env_680637abcf7c442195779c8ad154404e","parentId":"env_9975002c55c8542d23fce6106bc9eb10bbeacf6f","modified":1674921021992,"created":1674921010010,"name":"DEV","data":{"base_url":"localhost:8000"},"dataPropertyOrder":{"&":["base_url"]},"color":"#2bff00","isPrivate":false,"metaSortKey":1674921010010,"_type":"environment"}]}